<?xml version="1.0" encoding="utf-8"?>
<!-- Generator: Adobe Illustrator 23.0.1, SVG Export Plug-In . SVG Version: 6.00 Build 0)  -->
<svg version="1.1" id="Layer_1" xmlns="http://www.w3.org/2000/svg" xmlns:xlink="http://www.w3.org/1999/xlink" x="0px" y="0px"
	 viewBox="0 0 205 347.3" style="enable-background:new 0 0 205 347.3;" xml:space="preserve">
<style type="text/css">
	.st0{fill:url(#SVGID_1_);}
	.st1{fill:url(#SVGID_2_);}
	.st2{fill:url(#SVGID_3_);}
	.st3{fill:url(#SVGID_4_);}
	.st4{fill:url(#SVGID_5_);}
	.st5{fill:url(#SVGID_6_);}
	.st6{fill:url(#SVGID_7_);}
	.st7{fill:url(#SVGID_8_);}
</style>
<g>
	
		<linearGradient id="SVGID_1_" gradientUnits="userSpaceOnUse" x1="154.9852" y1="165.4256" x2="197.5752" y2="165.4256" gradientTransform="matrix(1 0 0 -1 0 347.2756)">
		<stop  offset="0" style="stop-color:#731340"/>
		<stop  offset="0.28" style="stop-color:#9F1158"/>
		<stop  offset="0.359" style="stop-color:#AC0E5F"/>
		<stop  offset="0.697" style="stop-color:#5A1033"/>
		<stop  offset="1" style="stop-color:#CC0364"/>
	</linearGradient>
	<path class="st0" d="M182,16.4c0,0,0.8,1.1,1.9,3.3c1.1,2.2,2.8,5.5,4.4,9.9c1.6,4.4,3.4,9.8,4.8,16.2c1.5,6.4,2.6,13.6,3.4,21.6
		c0.2,2,0.3,4,0.5,6.1c0.1,2.1,0.2,4.2,0.3,6.4c0.1,2.2,0.1,4.4,0.1,6.6v5.2l-0.1,1.7c-0.1,2.3-0.2,4.5-0.3,6.8s-0.4,4.8-0.6,7.2
		c-0.1,1.2-0.2,2.5-0.4,3.7c-0.1,1.2-0.3,2.4-0.5,3.6c-0.3,2.4-0.7,4.9-1,7.4c-0.8,4.9-1.6,10-2.6,15c-0.9,5-2,10.1-3.2,15.2
		c-2.2,10.1-4.8,20.4-7.2,30.5c-2.5,10.2-5,20.3-7.2,30.2c-0.6,2.5-1.1,5-1.6,7.4c-0.5,2.5-1.1,4.9-1.5,7.4
		c-0.5,2.4-0.9,4.9-1.3,7.3l-1.2,7.2l-0.6,3.6c-0.1,1.2-0.3,2.3-0.4,3.5c-0.3,2.3-0.5,4.6-0.8,6.9c-0.4,4.7-0.9,9.3-1.3,13.8
		c-0.8,8.9-1.5,17.3-1.8,25.1c-0.3,7.7-0.2,14.8,0.1,21.1c0.4,6.3,0.9,11.9,1.3,16.5s0.7,8.2,0.8,10.7s0.2,3.8,0.2,3.8
		s-0.4-1.3-1-3.6c-0.6-2.4-1.7-5.9-2.8-10.3c-1.2-4.5-2.7-9.9-4-16.2c-1.3-6.4-2.4-13.7-3-21.7s-0.8-16.6-0.7-25.7
		c0-4.6,0.1-9.2,0.2-13.9c0.1-2.5,0.2-4.9,0.4-7.4c0.1-1.2,0.2-2.5,0.2-3.7c0.1-1.2,0.2-2.5,0.4-3.8c0.3-2.5,0.5-5,0.8-7.6
		c0.4-2.5,0.7-5.1,1.1-7.6c0.8-5.1,1.6-10.2,2.7-15.4c1.9-10.3,4.4-20.6,6.9-30.8c2.6-10.2,5.1-20.3,7.6-30.3s4.8-19.7,6.9-29.2
		c0.5-2.4,0.9-4.7,1.4-7.1c0.2-1.2,0.4-2.3,0.7-3.5c0.2-1.1,0.4-2.3,0.6-3.4c0.4-2.3,0.8-4.4,1.1-6.7c0.3-2.3,0.6-4.6,0.9-6.8
		l0.2-1.7l0.1-1.5c0.1-1.1,0.2-2.2,0.3-3.2c0.2-2.1,0.4-4.3,0.5-6.3c0.1-2.1,0.3-4.1,0.4-6.1c0-2,0.1-4,0.2-5.9
		c0.1-7.7,0-14.8-0.6-21.1c-0.5-6.3-1.2-11.8-2.1-16.2c-0.9-4.5-1.7-8-2.4-10.3C182.5,17.6,182,16.4,182,16.4"/>
	
		<linearGradient id="SVGID_2_" gradientUnits="userSpaceOnUse" x1="129.7182" y1="195.0756" x2="170.7041" y2="195.0756" gradientTransform="matrix(1 0 0 -1 0 347.2756)">
		<stop  offset="0" style="stop-color:#731340"/>
		<stop  offset="0.28" style="stop-color:#9F1158"/>
		<stop  offset="0.359" style="stop-color:#AC0E5F"/>
		<stop  offset="0.697" style="stop-color:#5A1033"/>
		<stop  offset="1" style="stop-color:#CC0364"/>
	</linearGradient>
	<path class="st1" d="M146.8,0c0,0,0.7,1,1.8,3s2.8,4.9,4.6,8.8c1.9,3.9,4,8.6,6.1,14.2s4.3,12.1,6.1,19.3s3.5,15.1,4.4,23.7
		c0.3,2.1,0.4,4.3,0.6,6.5c0.1,2.2,0.4,4.5,0.3,6.7v6.9c-0.1,2.3-0.2,4.6-0.4,6.9c-0.1,2.2-0.3,4.7-0.6,7c-0.2,2.4-0.5,4.8-0.8,7.2
		c-0.3,2.4-0.7,4.8-1,7.2l-1.2,7.2c-1.7,9.6-3.9,19.1-6.2,28.6c-2.4,9.5-4.8,18.9-7.3,28c-1.2,4.6-2.4,9.1-3.6,13.6
		c-1.2,4.5-2.2,8.9-3.3,13.3c-2.1,8.7-3.8,17.1-5.2,25.1c-0.7,4.2-1.2,8-1.7,11.8s-0.8,7.5-1.2,11.1c-0.6,7.1-0.7,13.7-0.7,19.6
		s0,11.1,0.1,15.3c0.1,4.3,0,7.6,0,9.9s-0.1,3.5-0.1,3.5s-0.3-1.2-0.8-3.4s-1.2-5.5-2-9.7c-1.7-8.3-4.1-20.4-4.8-35.3
		c-0.2-3.7-0.2-7.6-0.1-11.6c0-4,0.3-8.3,0.6-12.4c0.7-8.5,1.8-17.5,3.4-26.6c0.8-4.5,1.7-9.1,2.7-13.8c1-4.6,2-9.3,3.1-13.9
		c2.2-9.3,4.6-18.7,6.9-28.1c2.3-9.3,4.5-18.7,6.5-27.8c0.5-2.3,0.9-4.6,1.4-6.9c0.4-2.3,0.8-4.5,1.2-6.8s0.7-4.5,1.1-6.6
		c0.3-2.2,0.7-4.3,0.9-6.6c0.2-2.2,0.5-4.4,0.7-6.6c0.1-2.1,0.3-4.3,0.4-6.3c0.2-2.1,0.1-4.2,0.2-6.2c0-2.1,0.1-4.1,0-6.1
		s-0.1-4-0.2-6c-0.1-2-0.3-3.9-0.4-5.8c-0.1-1.9-0.3-3.8-0.5-5.6s-0.4-3.7-0.6-5.4c-0.9-7.1-2.1-13.6-3.2-19.3
		c-1.2-5.7-2.4-10.7-3.5-14.8s-2-7.3-2.7-9.5C147.2,1.2,146.8,0,146.8,0"/>
	
		<linearGradient id="SVGID_3_" gradientUnits="userSpaceOnUse" x1="105.7703" y1="203.0256" x2="140.9272" y2="203.0256" gradientTransform="matrix(1 0 0 -1 0 347.2756)">
		<stop  offset="0" style="stop-color:#731340"/>
		<stop  offset="0.28" style="stop-color:#9F1158"/>
		<stop  offset="0.359" style="stop-color:#AC0E5F"/>
		<stop  offset="0.697" style="stop-color:#5A1033"/>
		<stop  offset="1" style="stop-color:#CC0364"/>
	</linearGradient>
	<path class="st2" d="M125.2,25.4c0,0,0.5,0.8,1.3,2.4s2,4,3.2,7.1c2.6,6.2,5.6,15.3,8,26.7c1.1,5.7,2.1,11.9,2.6,18.6
		s0.8,13.7,0.3,21.1l-0.3,5.4c-0.1,1.8-0.4,3.7-0.6,5.6c-0.2,1.9-0.5,3.8-0.7,5.7c-0.3,1.9-0.7,3.7-1,5.6c-1.3,7.5-3.2,15-5.1,22.4
		c-2,7.4-4.1,14.6-6.2,21.7c-2,7.1-4.1,14-5.8,20.7c-0.4,1.7-0.9,3.4-1.3,5c-0.4,1.7-0.7,3.3-1.2,4.9c-0.8,3.3-1.5,6.4-2.1,9.6
		c-1.3,6.2-2.1,12.2-3,17.7c-0.3,2.8-0.6,5.4-0.9,8c-0.2,1.3-0.3,2.5-0.5,3.7c-0.1,1.2-0.2,2.4-0.2,3.5c-0.2,2.3-0.3,4.4-0.4,6.4
		c-0.1,1-0.2,1.9-0.2,2.9c0,0.9,0,1.8-0.1,2.6c-0.1,3.3-0.2,5.9-0.3,7.7s-0.1,2.7-0.1,2.7l-0.6-2.7c-0.4-1.7-0.9-4.3-1.6-7.6
		c-0.2-0.8-0.3-1.7-0.5-2.6c-0.2-0.9-0.3-1.9-0.4-2.9c-0.3-2-0.5-4.2-0.8-6.5c-0.1-1.2-0.3-2.4-0.4-3.6c-0.1-1.2-0.1-2.5-0.2-3.8
		c-0.1-2.6-0.3-5.4-0.4-8.3c0.1-2.9,0.1-5.9,0.2-9c0-0.8,0-1.6,0.1-2.4c0.1-0.8,0.1-1.6,0.2-2.4c0.1-1.6,0.3-3.2,0.4-4.9
		c0.2-3.3,0.7-6.7,1.2-10.1c0.4-3.5,1.1-6.9,1.8-10.5c0.6-3.6,1.4-7.1,2.3-10.7c0.8-3.6,1.7-7.2,2.6-10.8c1.9-7.3,3.9-14.5,5.8-21.7
		c0.9-3.6,2-7.2,2.8-10.8s1.8-7.1,2.5-10.7c0.4-1.8,0.7-3.5,1.1-5.3l0.9-5.1c0.3-1.7,0.7-3.3,0.8-5.2c0.2-1.8,0.5-3.6,0.7-5.3
		c0.9-6.7,1.2-13.4,1.4-19.7c0-1.6,0-3.2,0.1-4.7c0-1.5,0-3.1-0.1-4.5c0-3-0.2-5.9-0.3-8.7c-0.4-5.6-0.8-10.7-1.3-15.2
		c-0.6-4.5-1.1-8.5-1.7-11.7c-0.6-3.2-1-5.8-1.4-7.5C125.4,26.4,125.2,25.4,125.2,25.4"/>
	
		<linearGradient id="SVGID_4_" gradientUnits="userSpaceOnUse" x1="81.8782" y1="205.2256" x2="111.8052" y2="205.2256" gradientTransform="matrix(1 0 0 -1 0 347.2756)">
		<stop  offset="0" style="stop-color:#731340"/>
		<stop  offset="0.28" style="stop-color:#9F1158"/>
		<stop  offset="0.359" style="stop-color:#AC0E5F"/>
		<stop  offset="0.697" style="stop-color:#5A1033"/>
		<stop  offset="1" style="stop-color:#CC0364"/>
	</linearGradient>
	<path class="st3" d="M102.2,59.2c0,0,0.4,0.6,1,1.7s1.5,2.8,2.3,5c0.9,2.2,1.9,4.9,2.8,8.1c0.9,3.2,1.7,6.9,2.3,10.9
		s1,8.5,1.1,13.2c0.1,2.4,0,4.8-0.1,7.2v1.1l-0.1,0.9c0,0.6-0.1,1.2-0.1,1.8c-0.1,1.2-0.2,2.4-0.3,3.7c0,0.6-0.1,1.2-0.2,1.9
		c-0.1,0.6-0.2,1.3-0.3,1.9l-0.6,3.9c-0.3,2.7-0.9,5.2-1.4,7.9c-0.5,2.6-1.2,5.2-1.9,7.9c-0.7,2.6-1.5,5.2-2.3,7.8
		c-1.6,5.1-3.4,10.1-5.1,15l-2.4,7.2c-0.8,2.4-1.5,4.7-2.2,7s-1.3,4.6-2,6.8c-0.6,2.3-1.1,4.5-1.7,6.6c-0.6,2.1-0.9,4.3-1.4,6.3
		s-0.9,4-1.2,6c-0.4,1.9-0.7,3.8-1.1,5.5c-0.3,1.8-0.6,3.5-0.8,5c-0.3,1.6-0.5,3.1-0.8,4.4c-0.2,1.4-0.4,2.6-0.6,3.8
		c-0.3,2.3-0.7,4.1-0.9,5.3s-0.3,1.9-0.3,1.9s-0.1-0.7-0.3-1.9s-0.5-3.1-0.8-5.4c-0.1-1.2-0.3-2.5-0.5-3.9c-0.1-1.4-0.2-2.9-0.3-4.6
		c-0.1-1.6-0.2-3.4-0.3-5.2v-5.8c0-4,0.3-8.4,0.7-13.1c0.3-2.3,0.6-4.7,0.9-7.1c0.4-2.4,0.9-4.9,1.4-7.4c1.1-5,2.4-10.1,3.9-15.1
		c1.5-5.1,3.2-10,4.7-15c0.8-2.5,1.5-4.9,2.3-7.4c0.6-2.5,1.4-4.9,2-7.3l0.9-3.6c0.3-1.2,0.6-2.4,0.8-3.6s0.5-2.4,0.7-3.5l0.4-1.7
		l0.3-1.8c0.4-2.4,0.8-4.7,1.2-7.1c0.3-2.3,0.7-4.5,0.9-6.7c0.5-4.4,0.8-8.5,0.9-12.4c0.2-3.9,0.1-7.4,0-10.6s-0.4-5.9-0.6-8.2
		c-0.3-2.3-0.5-4.1-0.8-5.3C102.3,59.9,102.2,59.2,102.2,59.2"/>
	
		<linearGradient id="SVGID_5_" gradientUnits="userSpaceOnUse" x1="58.9462" y1="208.2256" x2="82.5012" y2="208.2256" gradientTransform="matrix(1 0 0 -1 0 347.2756)">
		<stop  offset="0" style="stop-color:#731340"/>
		<stop  offset="0.28" style="stop-color:#9F1158"/>
		<stop  offset="0.359" style="stop-color:#AC0E5F"/>
		<stop  offset="0.697" style="stop-color:#5A1033"/>
		<stop  offset="1" style="stop-color:#CC0364"/>
	</linearGradient>
	<path class="st4" d="M74.8,83.1c0,0,0.3,0.4,0.8,1.1c0.2,0.3,0.5,0.8,0.9,1.3c0.3,0.5,0.7,1.2,1.1,1.9c0.4,0.7,0.8,1.5,1.2,2.4
		s0.8,1.9,1.2,3s0.7,2.3,1.1,3.5c0.3,1.3,0.6,2.6,0.8,4c0.4,2.8,0.7,5.9,0.6,9.2c0,3.2-0.3,6.7-0.9,10.1c-0.5,3.5-1.3,7-2.2,10.5
		c-0.9,3.5-2,7.1-3.3,10.5c-1.1,3.3-2.3,6.7-3.4,10s-2.1,6.5-3.1,9.5c-0.9,3.1-1.7,6.1-2.4,8.9c-0.6,2.9-1.1,5.6-1.5,8.2
		c-0.2,1.3-0.3,2.5-0.5,3.7c-0.1,1.2-0.3,2.3-0.4,3.4c-0.2,2.2-0.4,4.1-0.5,5.7c-0.2,1.6-0.2,2.8-0.4,3.7c-0.1,0.9-0.2,1.3-0.2,1.3
		s-0.2-0.4-0.5-1.2s-0.8-2-1.3-3.5s-1.1-3.4-1.6-5.6c-0.5-2.2-1-4.7-1.2-7.6c-0.3-2.8-0.4-5.9-0.2-9.2s0.6-6.7,1.3-10.1
		c0.7-3.4,1.6-7,2.8-10.4c0.5-1.7,1.2-3.5,1.8-5.2s1.3-3.3,2-5.1c1.3-3.3,2.6-6.5,3.7-9.8c1.2-3.2,2.2-6.4,3.1-9.6
		c0.5-1.6,0.8-3.1,1.2-4.6c0.3-1.5,0.7-3,0.9-4.5c0.1-0.7,0.3-1.4,0.4-2.1l0.3-2.1c0.2-1.4,0.3-2.7,0.4-4c0.1-2.6,0.1-5-0.1-7.1
		c-0.1-2.1-0.4-4-0.7-5.5c-0.2-0.8-0.3-1.4-0.4-2c-0.2-0.6-0.3-1.1-0.4-1.5C74.9,83.5,74.8,83.1,74.8,83.1"/>
	
		<linearGradient id="SVGID_6_" gradientUnits="userSpaceOnUse" x1="39.5302" y1="220.4756" x2="57.8302" y2="220.4756" gradientTransform="matrix(1 0 0 -1 0 347.2756)">
		<stop  offset="0" style="stop-color:#731340"/>
		<stop  offset="0.28" style="stop-color:#9F1158"/>
		<stop  offset="0.359" style="stop-color:#AC0E5F"/>
		<stop  offset="0.697" style="stop-color:#5A1033"/>
		<stop  offset="1" style="stop-color:#CC0364"/>
	</linearGradient>
	<path class="st5" d="M52.6,88.4c0,0,0.2,0.2,0.6,0.7c0.4,0.5,1,1.2,1.5,2.1c0.6,1,1.2,2.3,1.7,3.8s0.9,3.3,1.1,5.3
		c0.2,2,0.3,4.1,0.2,6.4c-0.1,2.2-0.3,4.6-0.8,7c-0.8,4.8-2.3,9.8-4.2,14.6c-0.9,2.2-1.8,4.5-2.6,6.7c-0.8,2.1-1.5,4.2-2.1,6.2
		s-1,4-1.3,5.9c-0.4,1.9-0.5,3.8-0.7,5.6c-0.1,1.8-0.3,3.5-0.4,5c-0.1,1.5-0.2,2.8-0.3,4c-0.1,2.2-0.3,3.5-0.3,3.5s-0.7-1.1-1.7-3.2
		c-0.5-1-1-2.3-1.5-3.8s-1-3.2-1.5-5.1c-0.4-1.9-0.8-4.1-0.8-6.4c-0.1-2.3,0-4.8,0.5-7.3c0.4-2.5,1.1-5,2-7.5c0.9-2.4,1.9-4.8,3-7
		c2-4.3,3.8-8.7,5.2-12.9c1.4-4.2,2.5-8.2,3-11.7s0.5-6.5,0.2-8.6c-0.2-1-0.4-1.9-0.5-2.4L52.6,88.4"/>
	
		<linearGradient id="SVGID_7_" gradientUnits="userSpaceOnUse" x1="22.1782" y1="237.4256" x2="36.7612" y2="237.4256" gradientTransform="matrix(1 0 0 -1 0 347.2756)">
		<stop  offset="0" style="stop-color:#731340"/>
		<stop  offset="0.28" style="stop-color:#9F1158"/>
		<stop  offset="0.359" style="stop-color:#AC0E5F"/>
		<stop  offset="0.697" style="stop-color:#5A1033"/>
		<stop  offset="1" style="stop-color:#CC0364"/>
	</linearGradient>
	<path class="st6" d="M31.9,84.2l0.6,0.3c0.3,0.2,0.9,0.6,1.4,1.2s1.1,1.5,1.6,2.5c0.5,1.1,0.8,2.4,1.1,3.8c0.2,1.4,0.3,2.9,0.2,4.5
		s-0.3,3.2-0.6,4.9c-0.6,3.3-1.7,6.6-2.8,9.8c-0.5,1.5-1.1,3-1.6,4.5c-0.5,1.4-1,2.8-1.5,4.1l-1.2,3.9c-0.3,1.3-0.6,2.5-0.9,3.6
		c-0.2,1.2-0.4,2.3-0.6,3.2c-0.2,1-0.3,1.9-0.4,2.6c-0.2,1.5-0.4,2.4-0.4,2.4s-0.6-0.7-1.5-2c-0.4-0.7-0.9-1.5-1.3-2.6
		c-0.2-0.5-0.4-1.1-0.6-1.7c-0.2-0.6-0.4-1.2-0.5-1.9c-0.7-2.7-0.9-6-0.4-9.4c0.2-1.7,0.6-3.4,1.1-5.1s1.2-3.3,1.8-4.9
		c1.3-3,2.6-5.9,3.8-8.7c1.2-2.7,2.2-5.2,2.7-7.4c0.6-2.2,0.7-4.1,0.5-5.5c-0.1-0.7-0.2-1.2-0.4-1.6C31.9,84.4,31.9,84.2,31.9,84.2"
		/>
	
		<linearGradient id="SVGID_8_" gradientUnits="userSpaceOnUse" x1="7.8452" y1="254.3256" x2="18.6162" y2="254.3256" gradientTransform="matrix(1 0 0 -1 0 347.2756)">
		<stop  offset="0" style="stop-color:#731340"/>
		<stop  offset="0.28" style="stop-color:#9F1158"/>
		<stop  offset="0.359" style="stop-color:#AC0E5F"/>
		<stop  offset="0.697" style="stop-color:#5A1033"/>
		<stop  offset="1" style="stop-color:#CC0364"/>
	</linearGradient>
	<path class="st7" d="M15.2,76.1c0,0,0.1,0.1,0.4,0.2c0.2,0.2,0.6,0.4,0.9,0.9c0.4,0.4,0.7,1,1.1,1.7c0.3,0.7,0.6,1.6,0.8,2.5
		c0.4,1.9,0.4,4,0.1,6.2c-0.3,2.2-0.9,4.5-1.6,6.6c-0.3,1.1-0.7,2.1-1.1,3c-0.4,0.9-0.7,1.8-1.1,2.6c-0.7,1.7-1.2,3.2-1.7,4.6
		c-0.4,1.4-0.7,2.7-0.9,3.7c-0.1,1-0.3,1.7-0.3,1.7s-0.1-0.1-0.4-0.3c-0.2-0.2-0.6-0.5-0.9-0.9c-0.4-0.4-0.8-0.9-1.2-1.6
		c-0.2-0.3-0.4-0.7-0.6-1.1c-0.2-0.4-0.3-0.9-0.5-1.3c-0.3-0.9-0.4-2-0.5-3.1c0-1.1,0-2.3,0.2-3.4c0.2-1.2,0.5-2.3,0.9-3.4
		s0.8-2.1,1.3-3.1c0.9-1.9,1.7-3.8,2.5-5.6c0.8-1.8,1.5-3.4,1.9-4.8c0.5-1.4,0.7-2.7,0.7-3.6c0-0.5,0-0.8-0.1-1.1
		C15.2,76.2,15.2,76.1,15.2,76.1"/>
</g>
</svg>
